%YAML 1.1
%TAG !u! tag:unity3d.com,2011:
--- !u!29 &1
OcclusionCullingSettings:
  m_ObjectHideFlags: 0
  serializedVersion: 2
  m_OcclusionBakeSettings:
    smallestOccluder: 5
    smallestHole: 0.25
    backfaceThreshold: 100
  m_SceneGUID: 00000000000000000000000000000000
  m_OcclusionCullingData: {fileID: 0}
--- !u!104 &2
RenderSettings:
  m_ObjectHideFlags: 0
  serializedVersion: 9
  m_Fog: 0
  m_FogColor: {r: 0.5, g: 0.5, b: 0.5, a: 1}
  m_FogMode: 3
  m_FogDensity: 0.01
  m_LinearFogStart: 0
  m_LinearFogEnd: 300
  m_AmbientSkyColor: {r: 0.212, g: 0.227, b: 0.259, a: 1}
  m_AmbientEquatorColor: {r: 0.114, g: 0.125, b: 0.133, a: 1}
  m_AmbientGroundColor: {r: 0.047, g: 0.043, b: 0.035, a: 1}
  m_AmbientIntensity: 1
  m_AmbientMode: 3
  m_SubtractiveShadowColor: {r: 0.42, g: 0.478, b: 0.627, a: 1}
  m_SkyboxMaterial: {fileID: 0}
  m_HaloStrength: 0.5
  m_FlareStrength: 1
  m_FlareFadeSpeed: 3
  m_HaloTexture: {fileID: 0}
  m_SpotCookie: {fileID: 10001, guid: 0000000000000000e000000000000000, type: 0}
  m_DefaultReflectionMode: 0
  m_DefaultReflectionResolution: 128
  m_ReflectionBounces: 1
  m_ReflectionIntensity: 1
  m_CustomReflection: {fileID: 0}
  m_Sun: {fileID: 0}
  m_IndirectSpecularColor: {r: 0, g: 0, b: 0, a: 1}
  m_UseRadianceAmbientProbe: 0
--- !u!157 &3
LightmapSettings:
  m_ObjectHideFlags: 0
  serializedVersion: 11
  m_GIWorkflowMode: 1
  m_GISettings:
    serializedVersion: 2
    m_BounceScale: 1
    m_IndirectOutputScale: 1
    m_AlbedoBoost: 1
    m_EnvironmentLightingMode: 0
    m_EnableBakedLightmaps: 0
    m_EnableRealtimeLightmaps: 0
  m_LightmapEditorSettings:
    serializedVersion: 10
    m_Resolution: 2
    m_BakeResolution: 40
    m_AtlasSize: 1024
    m_AO: 0
    m_AOMaxDistance: 1
    m_CompAOExponent: 1
    m_CompAOExponentDirect: 0
    m_Padding: 2
    m_LightmapParameters: {fileID: 0}
    m_LightmapsBakeMode: 1
    m_TextureCompression: 1
    m_FinalGather: 0
    m_FinalGatherFiltering: 1
    m_FinalGatherRayCount: 256
    m_ReflectionCompression: 2
    m_MixedBakeMode: 2
    m_BakeBackend: 0
    m_PVRSampling: 1
    m_PVRDirectSampleCount: 32
    m_PVRSampleCount: 500
    m_PVRBounces: 2
    m_PVRFilterTypeDirect: 0
    m_PVRFilterTypeIndirect: 0
    m_PVRFilterTypeAO: 0
    m_PVRFilteringMode: 1
    m_PVRCulling: 1
    m_PVRFilteringGaussRadiusDirect: 1
    m_PVRFilteringGaussRadiusIndirect: 5
    m_PVRFilteringGaussRadiusAO: 2
    m_PVRFilteringAtrousPositionSigmaDirect: 0.5
    m_PVRFilteringAtrousPositionSigmaIndirect: 2
    m_PVRFilteringAtrousPositionSigmaAO: 1
    m_ShowResolutionOverlay: 1
  m_LightingDataAsset: {fileID: 0}
  m_UseShadowmask: 1
--- !u!196 &4
NavMeshSettings:
  serializedVersion: 2
  m_ObjectHideFlags: 0
  m_BuildSettings:
    serializedVersion: 2
    agentTypeID: 0
    agentRadius: 0.5
    agentHeight: 2
    agentSlope: 45
    agentClimb: 0.4
    ledgeDropHeight: 0
    maxJumpAcrossDistance: 0
    minRegionArea: 2
    manualCellSize: 0
    cellSize: 0.16666667
    manualTileSize: 0
    tileSize: 256
    accuratePlacement: 0
    debug:
      m_Flags: 0
  m_NavMeshData: {fileID: 0}
--- !u!114 &397366882 stripped
MonoBehaviour:
  m_CorrespondingSourceObject: {fileID: 3895014284853659337, guid: db4bd8ee22671f640a44ecedc4c0c354,
    type: 3}
  m_PrefabInstance: {fileID: 3895014284595892395}
  m_PrefabAsset: {fileID: 0}
  m_GameObject: {fileID: 0}
  m_Enabled: 1
  m_EditorHideFlags: 0
  m_Script: {fileID: 1392445389, guid: f70555f144d8491a825f0804e09c671c, type: 3}
  m_Name: 
  m_EditorClassIdentifier: 
--- !u!1 &519420028
GameObject:
  m_ObjectHideFlags: 0
  m_CorrespondingSourceObject: {fileID: 0}
  m_PrefabInstance: {fileID: 0}
  m_PrefabAsset: {fileID: 0}
  serializedVersion: 6
  m_Component:
  - component: {fileID: 519420032}
  - component: {fileID: 519420031}
  - component: {fileID: 519420029}
  m_Layer: 0
  m_Name: Main Camera
  m_TagString: MainCamera
  m_Icon: {fileID: 0}
  m_NavMeshLayer: 0
  m_StaticEditorFlags: 0
  m_IsActive: 1
--- !u!81 &519420029
AudioListener:
  m_ObjectHideFlags: 0
  m_CorrespondingSourceObject: {fileID: 0}
  m_PrefabInstance: {fileID: 0}
  m_PrefabAsset: {fileID: 0}
  m_GameObject: {fileID: 519420028}
  m_Enabled: 1
--- !u!20 &519420031
Camera:
  m_ObjectHideFlags: 0
  m_CorrespondingSourceObject: {fileID: 0}
  m_PrefabInstance: {fileID: 0}
  m_PrefabAsset: {fileID: 0}
  m_GameObject: {fileID: 519420028}
  m_Enabled: 1
  serializedVersion: 2
  m_ClearFlags: 1
  m_BackGroundColor: {r: 0, g: 0, b: 0, a: 0}
  m_projectionMatrixMode: 1
  m_SensorSize: {x: 36, y: 24}
  m_LensShift: {x: 0, y: 0}
  m_GateFitMode: 2
  m_FocalLength: 50
  m_NormalizedViewPortRect:
    serializedVersion: 2
    x: 0
    y: 0
    width: 1
    height: 1
  near clip plane: 0.3
  far clip plane: 1000
  field of view: 60
  orthographic: 1
  orthographic size: 6.417265
  m_Depth: 0
  m_CullingMask:
    serializedVersion: 2
    m_Bits: 4294967295
  m_RenderingPath: -1
  m_TargetTexture: {fileID: 0}
  m_TargetDisplay: 0
  m_TargetEye: 3
  m_HDR: 1
  m_AllowMSAA: 1
  m_AllowDynamicResolution: 0
  m_ForceIntoRT: 0
  m_OcclusionCulling: 0
  m_StereoConvergence: 10
  m_StereoSeparation: 0.022
--- !u!4 &519420032
Transform:
  m_ObjectHideFlags: 0
  m_CorrespondingSourceObject: {fileID: 0}
  m_PrefabInstance: {fileID: 0}
  m_PrefabAsset: {fileID: 0}
  m_GameObject: {fileID: 519420028}
  m_LocalRotation: {x: 0, y: 0, z: 0, w: 1}
  m_LocalPosition: {x: 0, y: 0, z: -2.49}
  m_LocalScale: {x: 1, y: 1, z: 1}
  m_Children: []
  m_Father: {fileID: 0}
  m_RootOrder: 0
  m_LocalEulerAnglesHint: {x: 0, y: 0, z: 0}
--- !u!1 &586378293
GameObject:
  m_ObjectHideFlags: 0
  m_CorrespondingSourceObject: {fileID: 0}
  m_PrefabInstance: {fileID: 0}
  m_PrefabAsset: {fileID: 0}
  serializedVersion: 6
  m_Component:
  - component: {fileID: 586378294}
  - component: {fileID: 586378296}
  - component: {fileID: 586378295}
  m_Layer: 5
  m_Name: Board
  m_TagString: Untagged
  m_Icon: {fileID: 0}
  m_NavMeshLayer: 0
  m_StaticEditorFlags: 0
  m_IsActive: 1
--- !u!224 &586378294
RectTransform:
  m_ObjectHideFlags: 0
  m_CorrespondingSourceObject: {fileID: 0}
  m_PrefabInstance: {fileID: 0}
  m_PrefabAsset: {fileID: 0}
  m_GameObject: {fileID: 586378293}
  m_LocalRotation: {x: 0, y: 0, z: 0, w: 1}
  m_LocalPosition: {x: 0, y: 0, z: 0}
  m_LocalScale: {x: 1, y: 1, z: 1}
  m_Children:
  - {fileID: 1642866972}
  - {fileID: 1028529949}
  - {fileID: 1305829728}
  - {fileID: 1199474965}
  m_Father: {fileID: 880689915}
  m_RootOrder: 3
  m_LocalEulerAnglesHint: {x: 0, y: 0, z: 0}
  m_AnchorMin: {x: 0.5, y: 0.5}
  m_AnchorMax: {x: 0.5, y: 0.5}
  m_AnchoredPosition: {x: 0, y: -26}
  m_SizeDelta: {x: 400, y: 480}
  m_Pivot: {x: 0.5, y: 0.5}
--- !u!114 &586378295
MonoBehaviour:
  m_ObjectHideFlags: 0
  m_CorrespondingSourceObject: {fileID: 0}
  m_PrefabInstance: {fileID: 0}
  m_PrefabAsset: {fileID: 0}
  m_GameObject: {fileID: 586378293}
  m_Enabled: 1
  m_EditorHideFlags: 0
  m_Script: {fileID: -765806418, guid: f70555f144d8491a825f0804e09c671c, type: 3}
  m_Name: 
  m_EditorClassIdentifier: 
  m_Material: {fileID: 0}
  m_Color: {r: 1, g: 1, b: 1, a: 1}
  m_RaycastTarget: 1
  m_OnCullStateChanged:
    m_PersistentCalls:
      m_Calls: []
    m_TypeName: UnityEngine.UI.MaskableGraphic+CullStateChangedEvent, UnityEngine.UI,
      Version=1.0.0.0, Culture=neutral, PublicKeyToken=null
  m_Sprite: {fileID: 21300000, guid: f1c0e7874bd089145a16724d02386996, type: 3}
  m_Type: 0
  m_PreserveAspect: 0
  m_FillCenter: 1
  m_FillMethod: 4
  m_FillAmount: 1
  m_FillClockwise: 1
  m_FillOrigin: 0
  m_UseSpriteMesh: 0
--- !u!222 &586378296
CanvasRenderer:
  m_ObjectHideFlags: 0
  m_CorrespondingSourceObject: {fileID: 0}
  m_PrefabInstance: {fileID: 0}
  m_PrefabAsset: {fileID: 0}
  m_GameObject: {fileID: 586378293}
  m_CullTransparentMesh: 0
--- !u!1 &866740342
GameObject:
  m_ObjectHideFlags: 0
  m_CorrespondingSourceObject: {fileID: 0}
  m_PrefabInstance: {fileID: 0}
  m_PrefabAsset: {fileID: 0}
  serializedVersion: 6
  m_Component:
  - component: {fileID: 866740344}
  - component: {fileID: 866740343}
  m_Layer: 0
  m_Name: Controle Scripts
  m_TagString: Untagged
  m_Icon: {fileID: 0}
  m_NavMeshLayer: 0
  m_StaticEditorFlags: 0
  m_IsActive: 1
--- !u!114 &866740343
MonoBehaviour:
  m_ObjectHideFlags: 0
  m_CorrespondingSourceObject: {fileID: 0}
  m_PrefabInstance: {fileID: 0}
  m_PrefabAsset: {fileID: 0}
  m_GameObject: {fileID: 866740342}
  m_Enabled: 1
  m_EditorHideFlags: 0
  m_Script: {fileID: 11500000, guid: 2fc8ea35ffd7ba640ab81ed3bbedd73f, type: 3}
  m_Name: 
  m_EditorClassIdentifier: 
--- !u!4 &866740344
Transform:
  m_ObjectHideFlags: 0
  m_CorrespondingSourceObject: {fileID: 0}
  m_PrefabInstance: {fileID: 0}
  m_PrefabAsset: {fileID: 0}
  m_GameObject: {fileID: 866740342}
  m_LocalRotation: {x: 0, y: 0, z: 0, w: 1}
  m_LocalPosition: {x: 0.48066157, y: -1.6235675, z: -1.580817}
  m_LocalScale: {x: 1, y: 1, z: 1}
  m_Children: []
  m_Father: {fileID: 0}
  m_RootOrder: 3
  m_LocalEulerAnglesHint: {x: 0, y: 0, z: 0}
--- !u!1 &880689911
GameObject:
  m_ObjectHideFlags: 0
  m_CorrespondingSourceObject: {fileID: 0}
  m_PrefabInstance: {fileID: 0}
  m_PrefabAsset: {fileID: 0}
  serializedVersion: 6
  m_Component:
  - component: {fileID: 880689915}
  - component: {fileID: 880689914}
  - component: {fileID: 880689913}
  - component: {fileID: 880689912}
  m_Layer: 5
  m_Name: Canvas
  m_TagString: Untagged
  m_Icon: {fileID: 0}
  m_NavMeshLayer: 0
  m_StaticEditorFlags: 0
  m_IsActive: 1
--- !u!114 &880689912
MonoBehaviour:
  m_ObjectHideFlags: 0
  m_CorrespondingSourceObject: {fileID: 0}
  m_PrefabInstance: {fileID: 0}
  m_PrefabAsset: {fileID: 0}
  m_GameObject: {fileID: 880689911}
  m_Enabled: 1
  m_EditorHideFlags: 0
  m_Script: {fileID: 1301386320, guid: f70555f144d8491a825f0804e09c671c, type: 3}
  m_Name: 
  m_EditorClassIdentifier: 
  m_IgnoreReversedGraphics: 1
  m_BlockingObjects: 0
  m_BlockingMask:
    serializedVersion: 2
    m_Bits: 4294967295
--- !u!114 &880689913
MonoBehaviour:
  m_ObjectHideFlags: 0
  m_CorrespondingSourceObject: {fileID: 0}
  m_PrefabInstance: {fileID: 0}
  m_PrefabAsset: {fileID: 0}
  m_GameObject: {fileID: 880689911}
  m_Enabled: 1
  m_EditorHideFlags: 0
  m_Script: {fileID: 1980459831, guid: f70555f144d8491a825f0804e09c671c, type: 3}
  m_Name: 
  m_EditorClassIdentifier: 
  m_UiScaleMode: 0
  m_ReferencePixelsPerUnit: 100
  m_ScaleFactor: 1
  m_ReferenceResolution: {x: 800, y: 600}
  m_ScreenMatchMode: 0
  m_MatchWidthOrHeight: 0
  m_PhysicalUnit: 3
  m_FallbackScreenDPI: 96
  m_DefaultSpriteDPI: 96
  m_DynamicPixelsPerUnit: 1
--- !u!223 &880689914
Canvas:
  m_ObjectHideFlags: 0
  m_CorrespondingSourceObject: {fileID: 0}
  m_PrefabInstance: {fileID: 0}
  m_PrefabAsset: {fileID: 0}
  m_GameObject: {fileID: 880689911}
  m_Enabled: 1
  serializedVersion: 3
  m_RenderMode: 1
  m_Camera: {fileID: 519420031}
  m_PlaneDistance: 1
  m_PixelPerfect: 0
  m_ReceivesEvents: 1
  m_OverrideSorting: 0
  m_OverridePixelPerfect: 0
  m_SortingBucketNormalizedSize: 0
  m_AdditionalShaderChannelsFlag: 0
  m_SortingLayerID: 0
  m_SortingOrder: 0
  m_TargetDisplay: 0
--- !u!224 &880689915
RectTransform:
  m_ObjectHideFlags: 0
  m_CorrespondingSourceObject: {fileID: 0}
  m_PrefabInstance: {fileID: 0}
  m_PrefabAsset: {fileID: 0}
  m_GameObject: {fileID: 880689911}
  m_LocalRotation: {x: 0, y: 0, z: 0, w: 1}
  m_LocalPosition: {x: 0, y: 0, z: 0}
  m_LocalScale: {x: 0, y: 0, z: 0}
  m_Children:
  - {fileID: 1068640617}
  - {fileID: 2029579243}
  - {fileID: 1275347039}
  - {fileID: 586378294}
  m_Father: {fileID: 0}
  m_RootOrder: 1
  m_LocalEulerAnglesHint: {x: 0, y: 0, z: 0}
  m_AnchorMin: {x: 0, y: 0}
  m_AnchorMax: {x: 0, y: 0}
  m_AnchoredPosition: {x: 0, y: 0}
  m_SizeDelta: {x: 0, y: 0}
  m_Pivot: {x: 0, y: 0}
--- !u!224 &1028529949 stripped
RectTransform:
  m_CorrespondingSourceObject: {fileID: 3396999220266101466, guid: 5321b595351313d46899538ccf609d07,
    type: 3}
  m_PrefabInstance: {fileID: 3396999219682440647}
  m_PrefabAsset: {fileID: 0}
--- !u!224 &1068640617 stripped
RectTransform:
  m_CorrespondingSourceObject: {fileID: 5980011503322436781, guid: ac564feae95c7c344b4f45e2352280f4,
    type: 3}
  m_PrefabInstance: {fileID: 5980011503317335492}
  m_PrefabAsset: {fileID: 0}
--- !u!114 &1068640618 stripped
MonoBehaviour:
  m_CorrespondingSourceObject: {fileID: 5980011503322436782, guid: ac564feae95c7c344b4f45e2352280f4,
    type: 3}
  m_PrefabInstance: {fileID: 5980011503317335492}
  m_PrefabAsset: {fileID: 0}
  m_GameObject: {fileID: 0}
  m_Enabled: 1
  m_EditorHideFlags: 0
  m_Script: {fileID: 11500000, guid: 6d47e8e1ff0806c4798d402bb699665e, type: 3}
  m_Name: 
  m_EditorClassIdentifier: 
--- !u!224 &1199474965 stripped
RectTransform:
  m_CorrespondingSourceObject: {fileID: 3895014283500034494, guid: db4bd8ee22671f640a44ecedc4c0c354,
    type: 3}
  m_PrefabInstance: {fileID: 3895014284595892395}
  m_PrefabAsset: {fileID: 0}
--- !u!1 &1275347038
GameObject:
  m_ObjectHideFlags: 0
  m_CorrespondingSourceObject: {fileID: 0}
  m_PrefabInstance: {fileID: 0}
  m_PrefabAsset: {fileID: 0}
  serializedVersion: 6
  m_Component:
  - component: {fileID: 1275347039}
  - component: {fileID: 1275347042}
  - component: {fileID: 1275347041}
  - component: {fileID: 1275347040}
  m_Layer: 5
  m_Name: Voltar
  m_TagString: Untagged
  m_Icon: {fileID: 0}
  m_NavMeshLayer: 0
  m_StaticEditorFlags: 0
  m_IsActive: 1
--- !u!224 &1275347039
RectTransform:
  m_ObjectHideFlags: 0
  m_CorrespondingSourceObject: {fileID: 0}
  m_PrefabInstance: {fileID: 0}
  m_PrefabAsset: {fileID: 0}
  m_GameObject: {fileID: 1275347038}
  m_LocalRotation: {x: 0, y: 0, z: 0, w: 1}
  m_LocalPosition: {x: 0, y: 0, z: 0}
  m_LocalScale: {x: 1, y: 1, z: 1}
  m_Children: []
  m_Father: {fileID: 880689915}
  m_RootOrder: 2
  m_LocalEulerAnglesHint: {x: 0, y: 0, z: 0}
  m_AnchorMin: {x: 0.5, y: 0.5}
  m_AnchorMax: {x: 0.5, y: 0.5}
  m_AnchoredPosition: {x: 170, y: 260}
  m_SizeDelta: {x: 60, y: 60}
  m_Pivot: {x: 0.5, y: 0.5}
--- !u!114 &1275347040
MonoBehaviour:
  m_ObjectHideFlags: 0
  m_CorrespondingSourceObject: {fileID: 0}
  m_PrefabInstance: {fileID: 0}
  m_PrefabAsset: {fileID: 0}
  m_GameObject: {fileID: 1275347038}
  m_Enabled: 1
  m_EditorHideFlags: 0
  m_Script: {fileID: 1392445389, guid: f70555f144d8491a825f0804e09c671c, type: 3}
  m_Name: 
  m_EditorClassIdentifier: 
  m_Navigation:
    m_Mode: 3
    m_SelectOnUp: {fileID: 0}
    m_SelectOnDown: {fileID: 0}
    m_SelectOnLeft: {fileID: 0}
    m_SelectOnRight: {fileID: 0}
  m_Transition: 1
  m_Colors:
    m_NormalColor: {r: 1, g: 1, b: 1, a: 1}
    m_HighlightedColor: {r: 0.9607843, g: 0.9607843, b: 0.9607843, a: 1}
    m_PressedColor: {r: 0.78431374, g: 0.78431374, b: 0.78431374, a: 1}
    m_DisabledColor: {r: 0.78431374, g: 0.78431374, b: 0.78431374, a: 0.5019608}
    m_ColorMultiplier: 1
    m_FadeDuration: 0.1
  m_SpriteState:
    m_HighlightedSprite: {fileID: 0}
    m_PressedSprite: {fileID: 0}
    m_DisabledSprite: {fileID: 0}
  m_AnimationTriggers:
    m_NormalTrigger: Normal
    m_HighlightedTrigger: Highlighted
    m_PressedTrigger: Pressed
    m_DisabledTrigger: Disabled
  m_Interactable: 1
  m_TargetGraphic: {fileID: 1275347041}
  m_OnClick:
    m_PersistentCalls:
      m_Calls:
      - m_Target: {fileID: 866740343}
        m_MethodName: LoadSceneButton
        m_Mode: 5
        m_Arguments:
          m_ObjectArgument: {fileID: 0}
          m_ObjectArgumentAssemblyTypeName: UnityEngine.Object, UnityEngine
          m_IntArgument: 0
          m_FloatArgument: 0
          m_StringArgument: Equipamentos
          m_BoolArgument: 0
        m_CallState: 2
    m_TypeName: UnityEngine.UI.Button+ButtonClickedEvent, UnityEngine.UI, Version=1.0.0.0,
      Culture=neutral, PublicKeyToken=null
--- !u!114 &1275347041
MonoBehaviour:
  m_ObjectHideFlags: 0
  m_CorrespondingSourceObject: {fileID: 0}
  m_PrefabInstance: {fileID: 0}
  m_PrefabAsset: {fileID: 0}
  m_GameObject: {fileID: 1275347038}
  m_Enabled: 1
  m_EditorHideFlags: 0
  m_Script: {fileID: -765806418, guid: f70555f144d8491a825f0804e09c671c, type: 3}
  m_Name: 
  m_EditorClassIdentifier: 
  m_Material: {fileID: 0}
  m_Color: {r: 1, g: 1, b: 1, a: 1}
  m_RaycastTarget: 1
  m_OnCullStateChanged:
    m_PersistentCalls:
      m_Calls: []
    m_TypeName: UnityEngine.UI.MaskableGraphic+CullStateChangedEvent, UnityEngine.UI,
      Version=1.0.0.0, Culture=neutral, PublicKeyToken=null
  m_Sprite: {fileID: 21300000, guid: f1c514caec5c6fa49a1f1435bbcfe04d, type: 3}
  m_Type: 0
  m_PreserveAspect: 0
  m_FillCenter: 1
  m_FillMethod: 4
  m_FillAmount: 1
  m_FillClockwise: 1
  m_FillOrigin: 0
  m_UseSpriteMesh: 0
--- !u!222 &1275347042
CanvasRenderer:
  m_ObjectHideFlags: 0
  m_CorrespondingSourceObject: {fileID: 0}
  m_PrefabInstance: {fileID: 0}
  m_PrefabAsset: {fileID: 0}
  m_GameObject: {fileID: 1275347038}
  m_CullTransparentMesh: 0
--- !u!224 &1305829728 stripped
RectTransform:
  m_CorrespondingSourceObject: {fileID: 5221980418659202603, guid: 94641d8994260d643a15e338f93d92e0,
    type: 3}
  m_PrefabInstance: {fileID: 5221980419828701003}
  m_PrefabAsset: {fileID: 0}
--- !u!114 &1500488908 stripped
MonoBehaviour:
  m_CorrespondingSourceObject: {fileID: 3895014283666699367, guid: db4bd8ee22671f640a44ecedc4c0c354,
    type: 3}
  m_PrefabInstance: {fileID: 3895014284595892395}
  m_PrefabAsset: {fileID: 0}
  m_GameObject: {fileID: 0}
  m_Enabled: 1
  m_EditorHideFlags: 0
  m_Script: {fileID: 1392445389, guid: f70555f144d8491a825f0804e09c671c, type: 3}
  m_Name: 
  m_EditorClassIdentifier: 
--- !u!224 &1642866972 stripped
RectTransform:
  m_CorrespondingSourceObject: {fileID: 962263217599961913, guid: 954cf47c6e3c3844e889d31697dcc548,
    type: 3}
  m_PrefabInstance: {fileID: 962263217048154661}
  m_PrefabAsset: {fileID: 0}
--- !u!114 &1655730531 stripped
MonoBehaviour:
  m_CorrespondingSourceObject: {fileID: 1449622445316929578, guid: 954cf47c6e3c3844e889d31697dcc548,
    type: 3}
  m_PrefabInstance: {fileID: 962263217048154661}
  m_PrefabAsset: {fileID: 0}
  m_GameObject: {fileID: 0}
  m_Enabled: 1
  m_EditorHideFlags: 0
  m_Script: {fileID: 1392445389, guid: f70555f144d8491a825f0804e09c671c, type: 3}
  m_Name: 
  m_EditorClassIdentifier: 
--- !u!114 &1765131965 stripped
MonoBehaviour:
  m_CorrespondingSourceObject: {fileID: 4748009034227670087, guid: 954cf47c6e3c3844e889d31697dcc548,
    type: 3}
  m_PrefabInstance: {fileID: 962263217048154661}
  m_PrefabAsset: {fileID: 0}
  m_GameObject: {fileID: 0}
  m_Enabled: 1
  m_EditorHideFlags: 0
  m_Script: {fileID: 1392445389, guid: f70555f144d8491a825f0804e09c671c, type: 3}
  m_Name: 
  m_EditorClassIdentifier: 
--- !u!114 &1885681626 stripped
MonoBehaviour:
  m_CorrespondingSourceObject: {fileID: 962263217322673663, guid: 954cf47c6e3c3844e889d31697dcc548,
    type: 3}
  m_PrefabInstance: {fileID: 962263217048154661}
  m_PrefabAsset: {fileID: 0}
  m_GameObject: {fileID: 0}
  m_Enabled: 1
  m_EditorHideFlags: 0
  m_Script: {fileID: 11500000, guid: 6d47e8e1ff0806c4798d402bb699665e, type: 3}
  m_Name: 
  m_EditorClassIdentifier: 
--- !u!1 &2010157525
GameObject:
  m_ObjectHideFlags: 0
  m_CorrespondingSourceObject: {fileID: 0}
  m_PrefabInstance: {fileID: 0}
  m_PrefabAsset: {fileID: 0}
  serializedVersion: 6
  m_Component:
  - component: {fileID: 2010157528}
  - component: {fileID: 2010157527}
  - component: {fileID: 2010157526}
  m_Layer: 0
  m_Name: EventSystem
  m_TagString: Untagged
  m_Icon: {fileID: 0}
  m_NavMeshLayer: 0
  m_StaticEditorFlags: 0
  m_IsActive: 1
--- !u!114 &2010157526
MonoBehaviour:
  m_ObjectHideFlags: 0
  m_CorrespondingSourceObject: {fileID: 0}
  m_PrefabInstance: {fileID: 0}
  m_PrefabAsset: {fileID: 0}
  m_GameObject: {fileID: 2010157525}
  m_Enabled: 1
  m_EditorHideFlags: 0
  m_Script: {fileID: 1077351063, guid: f70555f144d8491a825f0804e09c671c, type: 3}
  m_Name: 
  m_EditorClassIdentifier: 
  m_HorizontalAxis: Horizontal
  m_VerticalAxis: Vertical
  m_SubmitButton: Submit
  m_CancelButton: Cancel
  m_InputActionsPerSecond: 10
  m_RepeatDelay: 0.5
  m_ForceModuleActive: 0
--- !u!114 &2010157527
MonoBehaviour:
  m_ObjectHideFlags: 0
  m_CorrespondingSourceObject: {fileID: 0}
  m_PrefabInstance: {fileID: 0}
  m_PrefabAsset: {fileID: 0}
  m_GameObject: {fileID: 2010157525}
  m_Enabled: 1
  m_EditorHideFlags: 0
  m_Script: {fileID: -619905303, guid: f70555f144d8491a825f0804e09c671c, type: 3}
  m_Name: 
  m_EditorClassIdentifier: 
  m_FirstSelected: {fileID: 0}
  m_sendNavigationEvents: 1
  m_DragThreshold: 10
--- !u!4 &2010157528
Transform:
  m_ObjectHideFlags: 0
  m_CorrespondingSourceObject: {fileID: 0}
  m_PrefabInstance: {fileID: 0}
  m_PrefabAsset: {fileID: 0}
  m_GameObject: {fileID: 2010157525}
  m_LocalRotation: {x: 0, y: 0, z: 0, w: 1}
  m_LocalPosition: {x: 0, y: 0, z: 0}
  m_LocalScale: {x: 1, y: 1, z: 1}
  m_Children: []
  m_Father: {fileID: 0}
  m_RootOrder: 2
  m_LocalEulerAnglesHint: {x: 0, y: 0, z: 0}
--- !u!224 &2029579243 stripped
RectTransform:
  m_CorrespondingSourceObject: {fileID: 6627043193733910069, guid: 68d09f87788af954fb30dd5494e0cd49,
    type: 3}
  m_PrefabInstance: {fileID: 6627043193057109470}
  m_PrefabAsset: {fileID: 0}
--- !u!114 &2029579244 stripped
MonoBehaviour:
  m_CorrespondingSourceObject: {fileID: 6627043193733910066, guid: 68d09f87788af954fb30dd5494e0cd49,
    type: 3}
  m_PrefabInstance: {fileID: 6627043193057109470}
  m_PrefabAsset: {fileID: 0}
  m_GameObject: {fileID: 0}
  m_Enabled: 1
  m_EditorHideFlags: 0
  m_Script: {fileID: 11500000, guid: 6d47e8e1ff0806c4798d402bb699665e, type: 3}
  m_Name: 
  m_EditorClassIdentifier: 
--- !u!1001 &962263217048154661
PrefabInstance:
  m_ObjectHideFlags: 0
  serializedVersion: 2
  m_Modification:
    m_TransformParent: {fileID: 586378294}
    m_Modifications:
    - target: {fileID: 4748009034227670087, guid: 954cf47c6e3c3844e889d31697dcc548,
        type: 3}
      propertyPath: m_OnClick.m_PersistentCalls.m_Calls.Array.data[0].m_Target
      value: 
      objectReference: {fileID: 1885681626}
    - target: {fileID: 4748009034227670087, guid: 954cf47c6e3c3844e889d31697dcc548,
        type: 3}
      propertyPath: m_OnClick.m_PersistentCalls.m_Calls.Array.data[0].m_MethodName
      value: PreviusChange
      objectReference: {fileID: 0}
    - target: {fileID: 1449622445316929578, guid: 954cf47c6e3c3844e889d31697dcc548,
        type: 3}
      propertyPath: m_OnClick.m_PersistentCalls.m_Calls.Array.data[0].m_Target
      value: 
      objectReference: {fileID: 1885681626}
    - target: {fileID: 1449622445316929578, guid: 954cf47c6e3c3844e889d31697dcc548,
        type: 3}
      propertyPath: m_OnClick.m_PersistentCalls.m_Calls.Array.data[0].m_MethodName
      value: NextChange
      objectReference: {fileID: 0}
    - target: {fileID: 962263217599961918, guid: 954cf47c6e3c3844e889d31697dcc548,
        type: 3}
      propertyPath: m_Name
      value: Esquerda
      objectReference: {fileID: 0}
    - target: {fileID: 962263217599961913, guid: 954cf47c6e3c3844e889d31697dcc548,
        type: 3}
      propertyPath: m_LocalPosition.x
      value: 0
      objectReference: {fileID: 0}
    - target: {fileID: 962263217599961913, guid: 954cf47c6e3c3844e889d31697dcc548,
        type: 3}
      propertyPath: m_LocalPosition.y
      value: 0
      objectReference: {fileID: 0}
    - target: {fileID: 962263217599961913, guid: 954cf47c6e3c3844e889d31697dcc548,
        type: 3}
      propertyPath: m_LocalPosition.z
      value: 0
      objectReference: {fileID: 0}
    - target: {fileID: 962263217599961913, guid: 954cf47c6e3c3844e889d31697dcc548,
        type: 3}
      propertyPath: m_LocalRotation.x
      value: 0
      objectReference: {fileID: 0}
    - target: {fileID: 962263217599961913, guid: 954cf47c6e3c3844e889d31697dcc548,
        type: 3}
      propertyPath: m_LocalRotation.y
      value: 0
      objectReference: {fileID: 0}
    - target: {fileID: 962263217599961913, guid: 954cf47c6e3c3844e889d31697dcc548,
        type: 3}
      propertyPath: m_LocalRotation.z
      value: 0
      objectReference: {fileID: 0}
    - target: {fileID: 962263217599961913, guid: 954cf47c6e3c3844e889d31697dcc548,
        type: 3}
      propertyPath: m_LocalRotation.w
      value: 1
      objectReference: {fileID: 0}
    - target: {fileID: 962263217599961913, guid: 954cf47c6e3c3844e889d31697dcc548,
        type: 3}
      propertyPath: m_RootOrder
      value: 0
      objectReference: {fileID: 0}
    - target: {fileID: 962263217599961913, guid: 954cf47c6e3c3844e889d31697dcc548,
        type: 3}
      propertyPath: m_LocalEulerAnglesHint.x
      value: 0
      objectReference: {fileID: 0}
    - target: {fileID: 962263217599961913, guid: 954cf47c6e3c3844e889d31697dcc548,
        type: 3}
      propertyPath: m_LocalEulerAnglesHint.y
      value: 0
      objectReference: {fileID: 0}
    - target: {fileID: 962263217599961913, guid: 954cf47c6e3c3844e889d31697dcc548,
        type: 3}
      propertyPath: m_LocalEulerAnglesHint.z
      value: 0
      objectReference: {fileID: 0}
    - target: {fileID: 962263217599961913, guid: 954cf47c6e3c3844e889d31697dcc548,
        type: 3}
      propertyPath: m_AnchoredPosition.x
      value: 0
      objectReference: {fileID: 0}
    - target: {fileID: 962263217599961913, guid: 954cf47c6e3c3844e889d31697dcc548,
        type: 3}
      propertyPath: m_AnchoredPosition.y
      value: 157.6
      objectReference: {fileID: 0}
    - target: {fileID: 962263217599961913, guid: 954cf47c6e3c3844e889d31697dcc548,
        type: 3}
      propertyPath: m_SizeDelta.x
      value: 400
      objectReference: {fileID: 0}
    - target: {fileID: 962263217599961913, guid: 954cf47c6e3c3844e889d31697dcc548,
        type: 3}
      propertyPath: m_SizeDelta.y
      value: 69.2
      objectReference: {fileID: 0}
    - target: {fileID: 962263217599961913, guid: 954cf47c6e3c3844e889d31697dcc548,
        type: 3}
      propertyPath: m_AnchorMin.x
      value: 0.5
      objectReference: {fileID: 0}
    - target: {fileID: 962263217599961913, guid: 954cf47c6e3c3844e889d31697dcc548,
        type: 3}
      propertyPath: m_AnchorMin.y
      value: 0.5
      objectReference: {fileID: 0}
    - target: {fileID: 962263217599961913, guid: 954cf47c6e3c3844e889d31697dcc548,
        type: 3}
      propertyPath: m_AnchorMax.x
      value: 0.5
      objectReference: {fileID: 0}
    - target: {fileID: 962263217599961913, guid: 954cf47c6e3c3844e889d31697dcc548,
        type: 3}
      propertyPath: m_AnchorMax.y
      value: 0.5
      objectReference: {fileID: 0}
    - target: {fileID: 962263217599961913, guid: 954cf47c6e3c3844e889d31697dcc548,
        type: 3}
      propertyPath: m_Pivot.x
      value: 0.5
      objectReference: {fileID: 0}
    - target: {fileID: 962263217599961913, guid: 954cf47c6e3c3844e889d31697dcc548,
        type: 3}
      propertyPath: m_Pivot.y
      value: 0.5
      objectReference: {fileID: 0}
    - target: {fileID: 962263217599961912, guid: 954cf47c6e3c3844e889d31697dcc548,
        type: 3}
      propertyPath: m_Color.a
      value: 0
      objectReference: {fileID: 0}
    - target: {fileID: 962263217322673663, guid: 954cf47c6e3c3844e889d31697dcc548,
        type: 3}
      propertyPath: listSpriteChange.Array.size
      value: 2
      objectReference: {fileID: 0}
    - target: {fileID: 962263217322673663, guid: 954cf47c6e3c3844e889d31697dcc548,
        type: 3}
      propertyPath: buttonNext
      value: 
      objectReference: {fileID: 1655730531}
    - target: {fileID: 962263217322673663, guid: 954cf47c6e3c3844e889d31697dcc548,
        type: 3}
      propertyPath: buttonPrevius
      value: 
      objectReference: {fileID: 1765131965}
    m_RemovedComponents: []
  m_SourcePrefab: {fileID: 100100000, guid: 954cf47c6e3c3844e889d31697dcc548, type: 3}
--- !u!1001 &3396999219682440647
PrefabInstance:
  m_ObjectHideFlags: 0
  serializedVersion: 2
  m_Modification:
    m_TransformParent: {fileID: 586378294}
    m_Modifications:
    - target: {fileID: 3396999220266101467, guid: 5321b595351313d46899538ccf609d07,
        type: 3}
      propertyPath: m_Name
      value: Direita
      objectReference: {fileID: 0}
    - target: {fileID: 3396999220266101466, guid: 5321b595351313d46899538ccf609d07,
        type: 3}
      propertyPath: m_LocalPosition.x
      value: 0
      objectReference: {fileID: 0}
    - target: {fileID: 3396999220266101466, guid: 5321b595351313d46899538ccf609d07,
        type: 3}
      propertyPath: m_LocalPosition.y
      value: 0
      objectReference: {fileID: 0}
    - target: {fileID: 3396999220266101466, guid: 5321b595351313d46899538ccf609d07,
        type: 3}
      propertyPath: m_LocalPosition.z
      value: 0
      objectReference: {fileID: 0}
    - target: {fileID: 3396999220266101466, guid: 5321b595351313d46899538ccf609d07,
        type: 3}
      propertyPath: m_LocalRotation.x
      value: 0
      objectReference: {fileID: 0}
    - target: {fileID: 3396999220266101466, guid: 5321b595351313d46899538ccf609d07,
        type: 3}
      propertyPath: m_LocalRotation.y
      value: 0
      objectReference: {fileID: 0}
    - target: {fileID: 3396999220266101466, guid: 5321b595351313d46899538ccf609d07,
        type: 3}
      propertyPath: m_LocalRotation.z
      value: 0
      objectReference: {fileID: 0}
    - target: {fileID: 3396999220266101466, guid: 5321b595351313d46899538ccf609d07,
        type: 3}
      propertyPath: m_LocalRotation.w
      value: 1
      objectReference: {fileID: 0}
    - target: {fileID: 3396999220266101466, guid: 5321b595351313d46899538ccf609d07,
        type: 3}
      propertyPath: m_RootOrder
      value: 1
      objectReference: {fileID: 0}
    - target: {fileID: 3396999220266101466, guid: 5321b595351313d46899538ccf609d07,
        type: 3}
      propertyPath: m_LocalEulerAnglesHint.x
      value: 0
      objectReference: {fileID: 0}
    - target: {fileID: 3396999220266101466, guid: 5321b595351313d46899538ccf609d07,
        type: 3}
      propertyPath: m_LocalEulerAnglesHint.y
      value: 0
      objectReference: {fileID: 0}
    - target: {fileID: 3396999220266101466, guid: 5321b595351313d46899538ccf609d07,
        type: 3}
      propertyPath: m_LocalEulerAnglesHint.z
      value: 0
      objectReference: {fileID: 0}
    - target: {fileID: 3396999220266101466, guid: 5321b595351313d46899538ccf609d07,
        type: 3}
      propertyPath: m_AnchoredPosition.x
      value: 0
      objectReference: {fileID: 0}
    - target: {fileID: 3396999220266101466, guid: 5321b595351313d46899538ccf609d07,
        type: 3}
      propertyPath: m_AnchoredPosition.y
      value: 47
      objectReference: {fileID: 0}
    - target: {fileID: 3396999220266101466, guid: 5321b595351313d46899538ccf609d07,
        type: 3}
      propertyPath: m_SizeDelta.x
      value: 400
      objectReference: {fileID: 0}
    - target: {fileID: 3396999220266101466, guid: 5321b595351313d46899538ccf609d07,
        type: 3}
      propertyPath: m_SizeDelta.y
      value: 69.2
      objectReference: {fileID: 0}
    - target: {fileID: 3396999220266101466, guid: 5321b595351313d46899538ccf609d07,
        type: 3}
      propertyPath: m_AnchorMin.x
      value: 0.5
      objectReference: {fileID: 0}
    - target: {fileID: 3396999220266101466, guid: 5321b595351313d46899538ccf609d07,
        type: 3}
      propertyPath: m_AnchorMin.y
      value: 0.5
      objectReference: {fileID: 0}
    - target: {fileID: 3396999220266101466, guid: 5321b595351313d46899538ccf609d07,
        type: 3}
      propertyPath: m_AnchorMax.x
      value: 0.5
      objectReference: {fileID: 0}
    - target: {fileID: 3396999220266101466, guid: 5321b595351313d46899538ccf609d07,
        type: 3}
      propertyPath: m_AnchorMax.y
      value: 0.5
      objectReference: {fileID: 0}
    - target: {fileID: 3396999220266101466, guid: 5321b595351313d46899538ccf609d07,
        type: 3}
      propertyPath: m_Pivot.x
      value: 0.5
      objectReference: {fileID: 0}
    - target: {fileID: 3396999220266101466, guid: 5321b595351313d46899538ccf609d07,
        type: 3}
      propertyPath: m_Pivot.y
      value: 0.5
      objectReference: {fileID: 0}
    - target: {fileID: 3396999220266101465, guid: 5321b595351313d46899538ccf609d07,
        type: 3}
      propertyPath: m_Color.a
      value: 0
      objectReference: {fileID: 0}
    - target: {fileID: 8342733766218110571, guid: 5321b595351313d46899538ccf609d07,
        type: 3}
      propertyPath: m_LocalScale.x
      value: 0.9998028
      objectReference: {fileID: 0}
    m_RemovedComponents: []
  m_SourcePrefab: {fileID: 100100000, guid: 5321b595351313d46899538ccf609d07, type: 3}
--- !u!1001 &3895014284595892395
PrefabInstance:
  m_ObjectHideFlags: 0
  serializedVersion: 2
  m_Modification:
    m_TransformParent: {fileID: 586378294}
    m_Modifications:
    - target: {fileID: 3895014283500034495, guid: db4bd8ee22671f640a44ecedc4c0c354,
        type: 3}
      propertyPath: m_Name
      value: Arena
      objectReference: {fileID: 0}
    - target: {fileID: 3895014283500034494, guid: db4bd8ee22671f640a44ecedc4c0c354,
        type: 3}
      propertyPath: m_LocalPosition.x
      value: 0
      objectReference: {fileID: 0}
    - target: {fileID: 3895014283500034494, guid: db4bd8ee22671f640a44ecedc4c0c354,
        type: 3}
      propertyPath: m_LocalPosition.y
      value: 0
      objectReference: {fileID: 0}
    - target: {fileID: 3895014283500034494, guid: db4bd8ee22671f640a44ecedc4c0c354,
        type: 3}
      propertyPath: m_LocalPosition.z
      value: 0
      objectReference: {fileID: 0}
    - target: {fileID: 3895014283500034494, guid: db4bd8ee22671f640a44ecedc4c0c354,
        type: 3}
      propertyPath: m_LocalRotation.x
      value: 0
      objectReference: {fileID: 0}
    - target: {fileID: 3895014283500034494, guid: db4bd8ee22671f640a44ecedc4c0c354,
        type: 3}
      propertyPath: m_LocalRotation.y
      value: 0
      objectReference: {fileID: 0}
    - target: {fileID: 3895014283500034494, guid: db4bd8ee22671f640a44ecedc4c0c354,
        type: 3}
      propertyPath: m_LocalRotation.z
      value: 0
      objectReference: {fileID: 0}
    - target: {fileID: 3895014283500034494, guid: db4bd8ee22671f640a44ecedc4c0c354,
        type: 3}
      propertyPath: m_LocalRotation.w
      value: 1
      objectReference: {fileID: 0}
    - target: {fileID: 3895014283500034494, guid: db4bd8ee22671f640a44ecedc4c0c354,
        type: 3}
      propertyPath: m_RootOrder
      value: 3
      objectReference: {fileID: 0}
    - target: {fileID: 3895014283500034494, guid: db4bd8ee22671f640a44ecedc4c0c354,
        type: 3}
      propertyPath: m_LocalEulerAnglesHint.x
      value: 0
      objectReference: {fileID: 0}
    - target: {fileID: 3895014283500034494, guid: db4bd8ee22671f640a44ecedc4c0c354,
        type: 3}
      propertyPath: m_LocalEulerAnglesHint.y
      value: 0
      objectReference: {fileID: 0}
    - target: {fileID: 3895014283500034494, guid: db4bd8ee22671f640a44ecedc4c0c354,
        type: 3}
      propertyPath: m_LocalEulerAnglesHint.z
      value: 0
      objectReference: {fileID: 0}
    - target: {fileID: 3895014283500034494, guid: db4bd8ee22671f640a44ecedc4c0c354,
        type: 3}
      propertyPath: m_AnchoredPosition.x
      value: 0
      objectReference: {fileID: 0}
    - target: {fileID: 3895014283500034494, guid: db4bd8ee22671f640a44ecedc4c0c354,
        type: 3}
      propertyPath: m_AnchoredPosition.y
      value: -157
      objectReference: {fileID: 0}
    - target: {fileID: 3895014283500034494, guid: db4bd8ee22671f640a44ecedc4c0c354,
        type: 3}
      propertyPath: m_SizeDelta.x
      value: 400
      objectReference: {fileID: 0}
    - target: {fileID: 3895014283500034494, guid: db4bd8ee22671f640a44ecedc4c0c354,
        type: 3}
      propertyPath: m_SizeDelta.y
      value: 69.2
      objectReference: {fileID: 0}
    - target: {fileID: 3895014283500034494, guid: db4bd8ee22671f640a44ecedc4c0c354,
        type: 3}
      propertyPath: m_AnchorMin.x
      value: 0.5
      objectReference: {fileID: 0}
    - target: {fileID: 3895014283500034494, guid: db4bd8ee22671f640a44ecedc4c0c354,
        type: 3}
      propertyPath: m_AnchorMin.y
      value: 0.5
      objectReference: {fileID: 0}
    - target: {fileID: 3895014283500034494, guid: db4bd8ee22671f640a44ecedc4c0c354,
        type: 3}
      propertyPath: m_AnchorMax.x
      value: 0.5
      objectReference: {fileID: 0}
    - target: {fileID: 3895014283500034494, guid: db4bd8ee22671f640a44ecedc4c0c354,
        type: 3}
      propertyPath: m_AnchorMax.y
      value: 0.5
      objectReference: {fileID: 0}
    - target: {fileID: 3895014283500034494, guid: db4bd8ee22671f640a44ecedc4c0c354,
        type: 3}
      propertyPath: m_Pivot.x
      value: 0.5
      objectReference: {fileID: 0}
    - target: {fileID: 3895014283500034494, guid: db4bd8ee22671f640a44ecedc4c0c354,
        type: 3}
      propertyPath: m_Pivot.y
      value: 0.5
      objectReference: {fileID: 0}
    - target: {fileID: 3895014284853659337, guid: db4bd8ee22671f640a44ecedc4c0c354,
        type: 3}
      propertyPath: m_OnClick.m_PersistentCalls.m_Calls.Array.data[0].m_Target
      value: 
      objectReference: {fileID: 1068640618}
    - target: {fileID: 3895014284853659337, guid: db4bd8ee22671f640a44ecedc4c0c354,
        type: 3}
      propertyPath: m_OnClick.m_PersistentCalls.m_Calls.Array.data[1].m_Target
      value: 
      objectReference: {fileID: 2029579244}
    - target: {fileID: 3895014283666699367, guid: db4bd8ee22671f640a44ecedc4c0c354,
        type: 3}
      propertyPath: m_OnClick.m_PersistentCalls.m_Calls.Array.data[0].m_Target
      value: 
      objectReference: {fileID: 1068640618}
    - target: {fileID: 3895014283666699367, guid: db4bd8ee22671f640a44ecedc4c0c354,
        type: 3}
      propertyPath: m_OnClick.m_PersistentCalls.m_Calls.Array.data[1].m_Target
      value: 
      objectReference: {fileID: 2029579244}
    m_RemovedComponents: []
  m_SourcePrefab: {fileID: 100100000, guid: db4bd8ee22671f640a44ecedc4c0c354, type: 3}
--- !u!1001 &5221980419828701003
PrefabInstance:
  m_ObjectHideFlags: 0
  serializedVersion: 2
  m_Modification:
    m_TransformParent: {fileID: 586378294}
    m_Modifications:
    - target: {fileID: 5221980418659202580, guid: 94641d8994260d643a15e338f93d92e0,
        type: 3}
      propertyPath: m_Name
      value: Goleiro
      objectReference: {fileID: 0}
    - target: {fileID: 5221980418659202603, guid: 94641d8994260d643a15e338f93d92e0,
        type: 3}
      propertyPath: m_LocalPosition.x
      value: 0
      objectReference: {fileID: 0}
    - target: {fileID: 5221980418659202603, guid: 94641d8994260d643a15e338f93d92e0,
        type: 3}
      propertyPath: m_LocalPosition.y
      value: 0
      objectReference: {fileID: 0}
    - target: {fileID: 5221980418659202603, guid: 94641d8994260d643a15e338f93d92e0,
        type: 3}
      propertyPath: m_LocalPosition.z
      value: 0
      objectReference: {fileID: 0}
    - target: {fileID: 5221980418659202603, guid: 94641d8994260d643a15e338f93d92e0,
        type: 3}
      propertyPath: m_LocalRotation.x
      value: 0
      objectReference: {fileID: 0}
    - target: {fileID: 5221980418659202603, guid: 94641d8994260d643a15e338f93d92e0,
        type: 3}
      propertyPath: m_LocalRotation.y
      value: 0
      objectReference: {fileID: 0}
    - target: {fileID: 5221980418659202603, guid: 94641d8994260d643a15e338f93d92e0,
        type: 3}
      propertyPath: m_LocalRotation.z
      value: 0
      objectReference: {fileID: 0}
    - target: {fileID: 5221980418659202603, guid: 94641d8994260d643a15e338f93d92e0,
        type: 3}
      propertyPath: m_LocalRotation.w
      value: 1
      objectReference: {fileID: 0}
    - target: {fileID: 5221980418659202603, guid: 94641d8994260d643a15e338f93d92e0,
        type: 3}
      propertyPath: m_RootOrder
      value: 2
      objectReference: {fileID: 0}
    - target: {fileID: 5221980418659202603, guid: 94641d8994260d643a15e338f93d92e0,
        type: 3}
      propertyPath: m_LocalEulerAnglesHint.x
      value: 0
      objectReference: {fileID: 0}
    - target: {fileID: 5221980418659202603, guid: 94641d8994260d643a15e338f93d92e0,
        type: 3}
      propertyPath: m_LocalEulerAnglesHint.y
      value: 0
      objectReference: {fileID: 0}
    - target: {fileID: 5221980418659202603, guid: 94641d8994260d643a15e338f93d92e0,
        type: 3}
      propertyPath: m_LocalEulerAnglesHint.z
      value: 0
      objectReference: {fileID: 0}
    - target: {fileID: 5221980418659202603, guid: 94641d8994260d643a15e338f93d92e0,
        type: 3}
      propertyPath: m_AnchoredPosition.x
      value: 0
      objectReference: {fileID: 0}
    - target: {fileID: 5221980418659202603, guid: 94641d8994260d643a15e338f93d92e0,
        type: 3}
      propertyPath: m_AnchoredPosition.y
      value: -60
      objectReference: {fileID: 0}
    - target: {fileID: 5221980418659202603, guid: 94641d8994260d643a15e338f93d92e0,
        type: 3}
      propertyPath: m_SizeDelta.x
      value: 400
      objectReference: {fileID: 0}
    - target: {fileID: 5221980418659202603, guid: 94641d8994260d643a15e338f93d92e0,
        type: 3}
      propertyPath: m_SizeDelta.y
      value: 69.2
      objectReference: {fileID: 0}
    - target: {fileID: 5221980418659202603, guid: 94641d8994260d643a15e338f93d92e0,
        type: 3}
      propertyPath: m_AnchorMin.x
      value: 0.5
      objectReference: {fileID: 0}
    - target: {fileID: 5221980418659202603, guid: 94641d8994260d643a15e338f93d92e0,
        type: 3}
      propertyPath: m_AnchorMin.y
      value: 0.5
      objectReference: {fileID: 0}
    - target: {fileID: 5221980418659202603, guid: 94641d8994260d643a15e338f93d92e0,
        type: 3}
      propertyPath: m_AnchorMax.x
      value: 0.5
      objectReference: {fileID: 0}
    - target: {fileID: 5221980418659202603, guid: 94641d8994260d643a15e338f93d92e0,
        type: 3}
      propertyPath: m_AnchorMax.y
      value: 0.5
      objectReference: {fileID: 0}
    - target: {fileID: 5221980418659202603, guid: 94641d8994260d643a15e338f93d92e0,
        type: 3}
      propertyPath: m_Pivot.x
      value: 0.5
      objectReference: {fileID: 0}
    - target: {fileID: 5221980418659202603, guid: 94641d8994260d643a15e338f93d92e0,
        type: 3}
      propertyPath: m_Pivot.y
      value: 0.5
      objectReference: {fileID: 0}
    - target: {fileID: 5221980418659202602, guid: 94641d8994260d643a15e338f93d92e0,
        type: 3}
      propertyPath: m_Color.a
      value: 0
      objectReference: {fileID: 0}
    m_RemovedComponents: []
  m_SourcePrefab: {fileID: 100100000, guid: 94641d8994260d643a15e338f93d92e0, type: 3}
--- !u!1001 &5980011503317335492
PrefabInstance:
  m_ObjectHideFlags: 0
  serializedVersion: 2
  m_Modification:
    m_TransformParent: {fileID: 880689915}
    m_Modifications:
    - target: {fileID: 5980011503322436780, guid: ac564feae95c7c344b4f45e2352280f4,
        type: 3}
      propertyPath: m_Name
      value: Fundo
      objectReference: {fileID: 0}
    - target: {fileID: 5980011503322436781, guid: ac564feae95c7c344b4f45e2352280f4,
        type: 3}
      propertyPath: m_LocalPosition.x
      value: 0
      objectReference: {fileID: 0}
    - target: {fileID: 5980011503322436781, guid: ac564feae95c7c344b4f45e2352280f4,
        type: 3}
      propertyPath: m_LocalPosition.y
      value: 0
      objectReference: {fileID: 0}
    - target: {fileID: 5980011503322436781, guid: ac564feae95c7c344b4f45e2352280f4,
        type: 3}
      propertyPath: m_LocalPosition.z
      value: 0
      objectReference: {fileID: 0}
    - target: {fileID: 5980011503322436781, guid: ac564feae95c7c344b4f45e2352280f4,
        type: 3}
      propertyPath: m_LocalRotation.x
      value: 0
      objectReference: {fileID: 0}
    - target: {fileID: 5980011503322436781, guid: ac564feae95c7c344b4f45e2352280f4,
        type: 3}
      propertyPath: m_LocalRotation.y
      value: 0
      objectReference: {fileID: 0}
    - target: {fileID: 5980011503322436781, guid: ac564feae95c7c344b4f45e2352280f4,
        type: 3}
      propertyPath: m_LocalRotation.z
      value: 0
      objectReference: {fileID: 0}
    - target: {fileID: 5980011503322436781, guid: ac564feae95c7c344b4f45e2352280f4,
        type: 3}
      propertyPath: m_LocalRotation.w
      value: 1
      objectReference: {fileID: 0}
    - target: {fileID: 5980011503322436781, guid: ac564feae95c7c344b4f45e2352280f4,
        type: 3}
      propertyPath: m_RootOrder
      value: 0
      objectReference: {fileID: 0}
    - target: {fileID: 5980011503322436781, guid: ac564feae95c7c344b4f45e2352280f4,
        type: 3}
      propertyPath: m_LocalEulerAnglesHint.x
      value: 0
      objectReference: {fileID: 0}
    - target: {fileID: 5980011503322436781, guid: ac564feae95c7c344b4f45e2352280f4,
        type: 3}
      propertyPath: m_LocalEulerAnglesHint.y
      value: 0
      objectReference: {fileID: 0}
    - target: {fileID: 5980011503322436781, guid: ac564feae95c7c344b4f45e2352280f4,
        type: 3}
      propertyPath: m_LocalEulerAnglesHint.z
      value: 0
      objectReference: {fileID: 0}
    - target: {fileID: 5980011503322436781, guid: ac564feae95c7c344b4f45e2352280f4,
        type: 3}
      propertyPath: m_AnchoredPosition.x
      value: 0
      objectReference: {fileID: 0}
    - target: {fileID: 5980011503322436781, guid: ac564feae95c7c344b4f45e2352280f4,
        type: 3}
      propertyPath: m_AnchoredPosition.y
      value: 0
      objectReference: {fileID: 0}
    - target: {fileID: 5980011503322436781, guid: ac564feae95c7c344b4f45e2352280f4,
        type: 3}
      propertyPath: m_SizeDelta.x
      value: 0
      objectReference: {fileID: 0}
    - target: {fileID: 5980011503322436781, guid: ac564feae95c7c344b4f45e2352280f4,
        type: 3}
      propertyPath: m_SizeDelta.y
      value: 0
      objectReference: {fileID: 0}
    - target: {fileID: 5980011503322436781, guid: ac564feae95c7c344b4f45e2352280f4,
        type: 3}
      propertyPath: m_AnchorMin.x
      value: 0
      objectReference: {fileID: 0}
    - target: {fileID: 5980011503322436781, guid: ac564feae95c7c344b4f45e2352280f4,
        type: 3}
      propertyPath: m_AnchorMin.y
      value: 0
      objectReference: {fileID: 0}
    - target: {fileID: 5980011503322436781, guid: ac564feae95c7c344b4f45e2352280f4,
        type: 3}
      propertyPath: m_AnchorMax.x
      value: 1
      objectReference: {fileID: 0}
    - target: {fileID: 5980011503322436781, guid: ac564feae95c7c344b4f45e2352280f4,
        type: 3}
      propertyPath: m_AnchorMax.y
      value: 1
      objectReference: {fileID: 0}
    - target: {fileID: 5980011503322436781, guid: ac564feae95c7c344b4f45e2352280f4,
        type: 3}
      propertyPath: m_Pivot.x
      value: 0.5
      objectReference: {fileID: 0}
    - target: {fileID: 5980011503322436781, guid: ac564feae95c7c344b4f45e2352280f4,
        type: 3}
      propertyPath: m_Pivot.y
      value: 0.5
      objectReference: {fileID: 0}
    - target: {fileID: 5980011503322436782, guid: ac564feae95c7c344b4f45e2352280f4,
        type: 3}
      propertyPath: listNameLoad.Array.size
      value: 12
      objectReference: {fileID: 0}
    - target: {fileID: 5980011503322436782, guid: ac564feae95c7c344b4f45e2352280f4,
        type: 3}
      propertyPath: listInstanceLoad.Array.size
      value: 2
      objectReference: {fileID: 0}
    - target: {fileID: 5980011503322436782, guid: ac564feae95c7c344b4f45e2352280f4,
        type: 3}
      propertyPath: buttonPrevius
      value: 
      objectReference: {fileID: 1500488908}
    - target: {fileID: 5980011503322436782, guid: ac564feae95c7c344b4f45e2352280f4,
        type: 3}
      propertyPath: buttonNext
      value: 
      objectReference: {fileID: 397366882}
    - target: {fileID: 5980011503322436782, guid: ac564feae95c7c344b4f45e2352280f4,
        type: 3}
      propertyPath: listNameLoad.Array.data[0]
      value: ARENAS/AIR HOCKEY/FUNDO
      objectReference: {fileID: 0}
    - target: {fileID: 5980011503322436782, guid: ac564feae95c7c344b4f45e2352280f4,
        type: 3}
      propertyPath: listNameLoad.Array.data[1]
      value: ARENAS/AREIA/FUNDO
      objectReference: {fileID: 0}
    - target: {fileID: 5980011503322436782, guid: ac564feae95c7c344b4f45e2352280f4,
        type: 3}
      propertyPath: listNameLoad.Array.data[2]
      value: ARENAS/AZUL E AMARELO/FUNDO
      objectReference: {fileID: 0}
    - target: {fileID: 5980011503322436782, guid: ac564feae95c7c344b4f45e2352280f4,
        type: 3}
      propertyPath: listNameLoad.Array.data[3]
      value: ARENAS/AIR HOCKEY/FUNDO
      objectReference: {fileID: 0}
    m_RemovedComponents: []
  m_SourcePrefab: {fileID: 100100000, guid: ac564feae95c7c344b4f45e2352280f4, type: 3}
--- !u!1001 &6627043193057109470
PrefabInstance:
  m_ObjectHideFlags: 0
  serializedVersion: 2
  m_Modification:
    m_TransformParent: {fileID: 880689915}
    m_Modifications:
    - target: {fileID: 6627043193733910068, guid: 68d09f87788af954fb30dd5494e0cd49,
        type: 3}
      propertyPath: m_Name
      value: Mascara
      objectReference: {fileID: 0}
    - target: {fileID: 6627043193733910069, guid: 68d09f87788af954fb30dd5494e0cd49,
        type: 3}
      propertyPath: m_LocalPosition.x
      value: 0
      objectReference: {fileID: 0}
    - target: {fileID: 6627043193733910069, guid: 68d09f87788af954fb30dd5494e0cd49,
        type: 3}
      propertyPath: m_LocalPosition.y
      value: 0
      objectReference: {fileID: 0}
    - target: {fileID: 6627043193733910069, guid: 68d09f87788af954fb30dd5494e0cd49,
        type: 3}
      propertyPath: m_LocalPosition.z
      value: 0
      objectReference: {fileID: 0}
    - target: {fileID: 6627043193733910069, guid: 68d09f87788af954fb30dd5494e0cd49,
        type: 3}
      propertyPath: m_LocalRotation.x
      value: -0
      objectReference: {fileID: 0}
    - target: {fileID: 6627043193733910069, guid: 68d09f87788af954fb30dd5494e0cd49,
        type: 3}
      propertyPath: m_LocalRotation.y
      value: -0
      objectReference: {fileID: 0}
    - target: {fileID: 6627043193733910069, guid: 68d09f87788af954fb30dd5494e0cd49,
        type: 3}
      propertyPath: m_LocalRotation.z
      value: -0
      objectReference: {fileID: 0}
    - target: {fileID: 6627043193733910069, guid: 68d09f87788af954fb30dd5494e0cd49,
        type: 3}
      propertyPath: m_LocalRotation.w
      value: 1
      objectReference: {fileID: 0}
    - target: {fileID: 6627043193733910069, guid: 68d09f87788af954fb30dd5494e0cd49,
        type: 3}
      propertyPath: m_RootOrder
      value: 1
      objectReference: {fileID: 0}
    - target: {fileID: 6627043193733910069, guid: 68d09f87788af954fb30dd5494e0cd49,
        type: 3}
      propertyPath: m_LocalEulerAnglesHint.x
      value: 0
      objectReference: {fileID: 0}
    - target: {fileID: 6627043193733910069, guid: 68d09f87788af954fb30dd5494e0cd49,
        type: 3}
      propertyPath: m_LocalEulerAnglesHint.y
      value: 0
      objectReference: {fileID: 0}
    - target: {fileID: 6627043193733910069, guid: 68d09f87788af954fb30dd5494e0cd49,
        type: 3}
      propertyPath: m_LocalEulerAnglesHint.z
      value: 0
      objectReference: {fileID: 0}
    - target: {fileID: 6627043193733910069, guid: 68d09f87788af954fb30dd5494e0cd49,
        type: 3}
      propertyPath: m_AnchoredPosition.x
      value: 0
      objectReference: {fileID: 0}
    - target: {fileID: 6627043193733910069, guid: 68d09f87788af954fb30dd5494e0cd49,
        type: 3}
      propertyPath: m_AnchoredPosition.y
      value: 0
      objectReference: {fileID: 0}
    - target: {fileID: 6627043193733910069, guid: 68d09f87788af954fb30dd5494e0cd49,
        type: 3}
      propertyPath: m_SizeDelta.x
      value: 0
      objectReference: {fileID: 0}
    - target: {fileID: 6627043193733910069, guid: 68d09f87788af954fb30dd5494e0cd49,
        type: 3}
      propertyPath: m_SizeDelta.y
      value: 0
      objectReference: {fileID: 0}
    - target: {fileID: 6627043193733910069, guid: 68d09f87788af954fb30dd5494e0cd49,
        type: 3}
      propertyPath: m_AnchorMin.x
      value: 0
      objectReference: {fileID: 0}
    - target: {fileID: 6627043193733910069, guid: 68d09f87788af954fb30dd5494e0cd49,
        type: 3}
      propertyPath: m_AnchorMin.y
      value: 0
      objectReference: {fileID: 0}
    - target: {fileID: 6627043193733910069, guid: 68d09f87788af954fb30dd5494e0cd49,
        type: 3}
      propertyPath: m_AnchorMax.x
      value: 1
      objectReference: {fileID: 0}
    - target: {fileID: 6627043193733910069, guid: 68d09f87788af954fb30dd5494e0cd49,
        type: 3}
      propertyPath: m_AnchorMax.y
      value: 1
      objectReference: {fileID: 0}
    - target: {fileID: 6627043193733910069, guid: 68d09f87788af954fb30dd5494e0cd49,
        type: 3}
      propertyPath: m_Pivot.x
      value: 0.5
      objectReference: {fileID: 0}
    - target: {fileID: 6627043193733910069, guid: 68d09f87788af954fb30dd5494e0cd49,
        type: 3}
      propertyPath: m_Pivot.y
      value: 0.5
      objectReference: {fileID: 0}
    - target: {fileID: 6627043193733910066, guid: 68d09f87788af954fb30dd5494e0cd49,
        type: 3}
      propertyPath: buttonPrevius
      value: 
      objectReference: {fileID: 1500488908}
    - target: {fileID: 6627043193733910066, guid: 68d09f87788af954fb30dd5494e0cd49,
        type: 3}
      propertyPath: buttonNext
      value: 
      objectReference: {fileID: 397366882}
    m_RemovedComponents: []
  m_SourcePrefab: {fileID: 100100000, guid: 68d09f87788af954fb30dd5494e0cd49, type: 3}
